<?xml version="1.0" encoding="utf-8"?>
<!-- Generator: Adobe Illustrator 24.1.0, SVG Export Plug-In . SVG Version: 6.00 Build 0)  -->
<svg version="1.1" id="Capa_1" xmlns="http://www.w3.org/2000/svg" xmlns:xlink="http://www.w3.org/1999/xlink" x="0px" y="0px"
	 viewBox="0 0 477.9 477.9" style="enable-background:new 0 0 477.9 477.9;" xml:space="preserve">
<style type="text/css">
	.st0{fill:#10A7E4;}
</style>
<g>
	<g>
		<path class="st0" d="M409.6,0c-9.4,0-17.1,7.6-17.1,17.1v62.3C304.7-5.7,164.5-3.4,79.4,84.5C39.3,125.9,17,181.3,17.1,238.9
			c0,9.4,7.6,17.1,17.1,17.1s17.1-7.6,17.1-17.1c0-103.7,84.1-187.7,187.8-187.7c52.7,0,102.9,22.1,138.4,61l-75.6,25.2
			c-9,3-13.8,12.7-10.8,21.6s12.7,13.8,21.6,10.8L415,135.7c7-2.3,11.7-8.9,11.7-16.2V17.1C426.7,7.6,419,0,409.6,0z"/>
	</g>
</g>
<g>
	<g>
		<path class="st0" d="M443.7,221.9c-9.4,0-17.1,7.6-17.1,17.1c0,103.7-84.1,187.7-187.8,187.7c-52.7,0-102.9-22.1-138.4-61
			l75.6-25.2c9-3,13.8-12.7,10.8-21.6c-3-9-12.7-13.8-21.6-10.8L62.9,342.2c-7,2.3-11.7,8.9-11.7,16.2v102.4
			c0,9.4,7.6,17.1,17.1,17.1s17.1-7.6,17.1-17.1v-62.3c87.9,85.1,228.1,82.8,313.1-5.1c40.1-41.4,62.5-96.8,62.3-154.5
			C460.8,229.5,453.2,221.9,443.7,221.9z"/>
	</g>
</g>
</svg>
